{
  "compilerOptions": {
    "checkJs": true,
    "allowJs": true,
    "jsx": "react",
    "baseUrl": ".",
    "paths": {
      "/*": [
        "./*"
      ],
      "meteor/davidfm:core": [
        "packages/davidfm-core/server/main.js",
        "packages/davidfm-core/client/main.js"
      ],
      "meteor/davidfm:organizer": [
        "packages/davidfm-organizer/server/main.js",
        "packages/davidfm-organizer/client/main.js"
      ],
      "meteor/mongo": [
        "/home/davidfm/.meteor/packages/mongo/1.16.6/web.browser/local_collection_driver.js",
        "/home/davidfm/.meteor/packages/mongo/1.16.6/web.browser/collection.js",
        "/home/davidfm/.meteor/packages/mongo/1.16.6/web.browser/connection_options.js",
        "/home/davidfm/.meteor/packages/mongo/1.16.6/web.browser/doc_fetcher.js",
        "/home/davidfm/.meteor/packages/mongo/1.16.6/web.browser/mongo_driver.js",
        "/home/davidfm/.meteor/packages/mongo/1.16.6/web.browser/mongo_utils.js",
        "/home/davidfm/.meteor/packages/mongo/1.16.6/web.browser/observe_multiplex.js",
        "/home/davidfm/.meteor/packages/mongo/1.16.6/web.browser/oplog_observe_driver.js",
        "/home/davidfm/.meteor/packages/mongo/1.16.6/web.browser/oplog_tailing.js",
        "/home/davidfm/.meteor/packages/mongo/1.16.6/web.browser/oplog_v2_converter.js",
        "/home/davidfm/.meteor/packages/mongo/1.16.6/web.browser/polling_observe_driver.js",
        "/home/davidfm/.meteor/packages/mongo/1.16.6/web.browser/remote_collection_driver.js"
      ],
      "meteor/reactive-var": [
        "/home/davidfm/.meteor/packages/reactive-var/1.0.12/web.browser/reactive-var.js"
      ],
      "meteor/tracker": [
        "/home/davidfm/.meteor/packages/tracker/1.3.2/web.browser/tracker.js"
      ],
      "meteor/session": [
        "/home/davidfm/.meteor/packages/session/1.2.1/web.browser/session.js"
      ],
      "meteor/ecmascript": [
        "/home/davidfm/.meteor/packages/ecmascript/0.16.7/web.browser/ecmascript.js"
      ],
      "meteor/shell-server": [
        "/home/davidfm/.meteor/packages/shell-server/0.5.0/web.browser/main.js",
        "/home/davidfm/.meteor/packages/shell-server/0.5.0/web.browser/shell-server.js"
      ],
      "meteor/hot-module-replacement": [
        "/home/davidfm/.meteor/packages/hot-module-replacement/0.5.3/web.browser/hot-api.js",
        "/home/davidfm/.meteor/packages/hot-module-replacement/0.5.3/web.browser/client.js",
        "/home/davidfm/.meteor/packages/hot-module-replacement/0.5.3/web.browser/server.js"
      ],
      "meteor/blaze-hot": [
        "/home/davidfm/.meteor/packages/blaze-hot/1.1.1/web.browser/hot.js",
        "/home/davidfm/.meteor/packages/blaze-hot/1.1.1/web.browser/update-templates.js"
      ],
      "meteor/http": [
        "/home/davidfm/.meteor/packages/http/1.4.4/web.browser/httpcall_client.js",
        "/home/davidfm/.meteor/packages/http/1.4.4/web.browser/httpcall_common.js",
        "/home/davidfm/.meteor/packages/http/1.4.4/web.browser/httpcall_server.js"
      ],
      "meteor/email": [
        "/home/davidfm/.meteor/packages/email/2.2.5/web.browser/email.js"
      ],
      "meteor/useraccounts:core": [
        "/home/davidfm/.meteor/packages/useraccounts_core/1.16.2/web.browser/lib/utils.js",
        "/home/davidfm/.meteor/packages/useraccounts_core/1.16.2/web.browser/lib/field.js",
        "/home/davidfm/.meteor/packages/useraccounts_core/1.16.2/web.browser/lib/core.js",
        "/home/davidfm/.meteor/packages/useraccounts_core/1.16.2/web.browser/lib/client.js",
        "/home/davidfm/.meteor/packages/useraccounts_core/1.16.2/web.browser/lib/templates_helpers/at_error.js",
        "/home/davidfm/.meteor/packages/useraccounts_core/1.16.2/web.browser/lib/templates_helpers/at_form.js",
        "/home/davidfm/.meteor/packages/useraccounts_core/1.16.2/web.browser/lib/templates_helpers/at_input.js",
        "/home/davidfm/.meteor/packages/useraccounts_core/1.16.2/web.browser/lib/templates_helpers/at_nav_button.js",
        "/home/davidfm/.meteor/packages/useraccounts_core/1.16.2/web.browser/lib/templates_helpers/at_oauth.js",
        "/home/davidfm/.meteor/packages/useraccounts_core/1.16.2/web.browser/lib/templates_helpers/at_pwd_form.js",
        "/home/davidfm/.meteor/packages/useraccounts_core/1.16.2/web.browser/lib/templates_helpers/at_pwd_form_btn.js",
        "/home/davidfm/.meteor/packages/useraccounts_core/1.16.2/web.browser/lib/templates_helpers/at_pwd_link.js",
        "/home/davidfm/.meteor/packages/useraccounts_core/1.16.2/web.browser/lib/templates_helpers/at_reCaptcha.js",
        "/home/davidfm/.meteor/packages/useraccounts_core/1.16.2/web.browser/lib/templates_helpers/at_resend_verification_email_link.js",
        "/home/davidfm/.meteor/packages/useraccounts_core/1.16.2/web.browser/lib/templates_helpers/at_result.js",
        "/home/davidfm/.meteor/packages/useraccounts_core/1.16.2/web.browser/lib/templates_helpers/at_sep.js",
        "/home/davidfm/.meteor/packages/useraccounts_core/1.16.2/web.browser/lib/templates_helpers/at_signin_link.js",
        "/home/davidfm/.meteor/packages/useraccounts_core/1.16.2/web.browser/lib/templates_helpers/at_signup_link.js",
        "/home/davidfm/.meteor/packages/useraccounts_core/1.16.2/web.browser/lib/templates_helpers/at_social.js",
        "/home/davidfm/.meteor/packages/useraccounts_core/1.16.2/web.browser/lib/templates_helpers/at_terms_link.js",
        "/home/davidfm/.meteor/packages/useraccounts_core/1.16.2/web.browser/lib/templates_helpers/at_title.js",
        "/home/davidfm/.meteor/packages/useraccounts_core/1.16.2/web.browser/lib/templates_helpers/at_message.js",
        "/home/davidfm/.meteor/packages/useraccounts_core/1.16.2/web.browser/lib/templates_helpers/ensure_signed_in.js",
        "/home/davidfm/.meteor/packages/useraccounts_core/1.16.2/web.browser/lib/methods.js",
        "/home/davidfm/.meteor/packages/useraccounts_core/1.16.2/web.browser/lib/T9n.js",
        "/home/davidfm/.meteor/packages/useraccounts_core/1.16.2/web.browser/lib/server.js",
        "/home/davidfm/.meteor/packages/useraccounts_core/1.16.2/web.browser/lib/server_methods.js"
      ],
      "meteor/useraccounts:iron-routing": [
        "/home/davidfm/.meteor/packages/useraccounts_iron-routing/1.15.0/web.browser/lib/core.js",
        "/home/davidfm/.meteor/packages/useraccounts_iron-routing/1.15.0/web.browser/lib/client.js",
        "/home/davidfm/.meteor/packages/useraccounts_iron-routing/1.15.0/web.browser/lib/templates_helpers/at_input.js",
        "/home/davidfm/.meteor/packages/useraccounts_iron-routing/1.15.0/web.browser/lib/server.js"
      ],
      "meteor/useraccounts:bootstrap": [
        "/home/davidfm/.meteor/packages/useraccounts_bootstrap/1.15.0/web.browser/lib/at_error.js",
        "/home/davidfm/.meteor/packages/useraccounts_bootstrap/1.15.0/web.browser/lib/at_form.js",
        "/home/davidfm/.meteor/packages/useraccounts_bootstrap/1.15.0/web.browser/lib/at_input.js",
        "/home/davidfm/.meteor/packages/useraccounts_bootstrap/1.15.0/web.browser/lib/at_message.js",
        "/home/davidfm/.meteor/packages/useraccounts_bootstrap/1.15.0/web.browser/lib/at_nav_button.js",
        "/home/davidfm/.meteor/packages/useraccounts_bootstrap/1.15.0/web.browser/lib/at_oauth.js",
        "/home/davidfm/.meteor/packages/useraccounts_bootstrap/1.15.0/web.browser/lib/at_pwd_form.js",
        "/home/davidfm/.meteor/packages/useraccounts_bootstrap/1.15.0/web.browser/lib/at_pwd_form_btn.js",
        "/home/davidfm/.meteor/packages/useraccounts_bootstrap/1.15.0/web.browser/lib/at_pwd_link.js",
        "/home/davidfm/.meteor/packages/useraccounts_bootstrap/1.15.0/web.browser/lib/at_reCaptcha.js",
        "/home/davidfm/.meteor/packages/useraccounts_bootstrap/1.15.0/web.browser/lib/at_result.js",
        "/home/davidfm/.meteor/packages/useraccounts_bootstrap/1.15.0/web.browser/lib/at_sep.js",
        "/home/davidfm/.meteor/packages/useraccounts_bootstrap/1.15.0/web.browser/lib/at_signin_link.js",
        "/home/davidfm/.meteor/packages/useraccounts_bootstrap/1.15.0/web.browser/lib/at_signup_link.js",
        "/home/davidfm/.meteor/packages/useraccounts_bootstrap/1.15.0/web.browser/lib/at_social.js",
        "/home/davidfm/.meteor/packages/useraccounts_bootstrap/1.15.0/web.browser/lib/at_terms_link.js",
        "/home/davidfm/.meteor/packages/useraccounts_bootstrap/1.15.0/web.browser/lib/at_resend_verification_email_link.js",
        "/home/davidfm/.meteor/packages/useraccounts_bootstrap/1.15.0/web.browser/lib/at_title.js"
      ],
      "meteor/accounts-password": [
        "/home/davidfm/.meteor/packages/accounts-password/2.3.4/web.browser/password_client.js",
        "/home/davidfm/.meteor/packages/accounts-password/2.3.4/web.browser/email_templates.js",
        "/home/davidfm/.meteor/packages/accounts-password/2.3.4/web.browser/password_server.js"
      ],
      "meteor/accounts-google": [
        "/home/davidfm/.meteor/packages/accounts-google/1.4.0/web.browser/notice.js",
        "/home/davidfm/.meteor/packages/accounts-google/1.4.0/web.browser/google.js"
      ],
      "meteor/google-config-ui": [
        "/home/davidfm/.meteor/packages/google-config-ui/1.0.3/web.browser/google_configure.js"
      ],
      "meteor/service-configuration": [
        "/home/davidfm/.meteor/packages/service-configuration/1.3.1/web.browser/service_configuration_common.js",
        "/home/davidfm/.meteor/packages/service-configuration/1.3.1/web.browser/service_configuration_server.js"
      ],
      "meteor/underscore": [
        "/home/davidfm/.meteor/packages/underscore/1.0.13/web.browser/pre.js",
        "/home/davidfm/.meteor/packages/underscore/1.0.13/web.browser/underscore.js",
        "/home/davidfm/.meteor/packages/underscore/1.0.13/web.browser/post.js"
      ],
      "meteor/iron:router": [
        "/home/davidfm/.meteor/packages/iron_router/1.2.0/web.browser/lib/current_options.js",
        "/home/davidfm/.meteor/packages/iron_router/1.2.0/web.browser/lib/http_methods.js",
        "/home/davidfm/.meteor/packages/iron_router/1.2.0/web.browser/lib/route_controller.js",
        "/home/davidfm/.meteor/packages/iron_router/1.2.0/web.browser/lib/route_controller_client.js",
        "/home/davidfm/.meteor/packages/iron_router/1.2.0/web.browser/lib/route.js",
        "/home/davidfm/.meteor/packages/iron_router/1.2.0/web.browser/lib/router.js",
        "/home/davidfm/.meteor/packages/iron_router/1.2.0/web.browser/lib/hooks.js",
        "/home/davidfm/.meteor/packages/iron_router/1.2.0/web.browser/lib/helpers.js",
        "/home/davidfm/.meteor/packages/iron_router/1.2.0/web.browser/lib/router_client.js",
        "/home/davidfm/.meteor/packages/iron_router/1.2.0/web.browser/lib/plugins.js",
        "/home/davidfm/.meteor/packages/iron_router/1.2.0/web.browser/lib/global_router.js",
        "/home/davidfm/.meteor/packages/iron_router/1.2.0/web.browser/lib/route_controller_server.js",
        "/home/davidfm/.meteor/packages/iron_router/1.2.0/web.browser/lib/body_parser_server.js",
        "/home/davidfm/.meteor/packages/iron_router/1.2.0/web.browser/lib/router_server.js"
      ],
      "meteor/zimme:active-route": [
        "/home/davidfm/.meteor/packages/zimme_active-route/2.3.2/web.browser//packages/zimme_active-route.js"
      ],
      "meteor/jparker:gravatar": [
        "/home/davidfm/.meteor/packages/jparker_gravatar/0.5.1/web.browser/gravatar.js"
      ],
      "meteor/summernote:standalone": [
        "/home/davidfm/.meteor/packages/summernote_standalone/0.8.1/web.browser/dist/summernote.js"
      ],
      "meteor/mrt:bootstrap3-typeahead": [
        "/home/davidfm/.meteor/packages/mrt_bootstrap3-typeahead/3.0.3/web.browser//packages/mrt:bootstrap3-typeahead.js"
      ],
      "meteor/lepozepo:accounting": [
        "/home/davidfm/.meteor/packages/lepozepo_accounting/1.0.0/web.browser//packages/lepozepo:accounting.js"
      ],
      "meteor/alanning:roles": [
        "/home/davidfm/.meteor/packages/alanning_roles/3.4.0/web.browser/roles/roles_common.js",
        "/home/davidfm/.meteor/packages/alanning_roles/3.4.0/web.browser/roles/client/debug.js",
        "/home/davidfm/.meteor/packages/alanning_roles/3.4.0/web.browser/roles/client/uiHelpers.js",
        "/home/davidfm/.meteor/packages/alanning_roles/3.4.0/web.browser/roles/client/subscriptions.js",
        "/home/davidfm/.meteor/packages/alanning_roles/3.4.0/web.browser/examples/flow-router-advanced/main/client/header.js",
        "/home/davidfm/.meteor/packages/alanning_roles/3.4.0/web.browser/examples/flow-router-advanced/main/client/layouts.js",
        "/home/davidfm/.meteor/packages/alanning_roles/3.4.0/web.browser/examples/flow-router-advanced/main/client/noteOfTheDay.js",
        "/home/davidfm/.meteor/packages/alanning_roles/3.4.0/web.browser/examples/flow-router-advanced/main/client/routing.js",
        "/home/davidfm/.meteor/packages/alanning_roles/3.4.0/web.browser/examples/flow-router-advanced/main/client/signin.js",
        "/home/davidfm/.meteor/packages/alanning_roles/3.4.0/web.browser/examples/flow-router-advanced/main/client/lib/app.js",
        "/home/davidfm/.meteor/packages/alanning_roles/3.4.0/web.browser/examples/flow-router-advanced/main/client/lib/patches.js",
        "/home/davidfm/.meteor/packages/alanning_roles/3.4.0/web.browser/examples/flow-router-advanced/main/client/lib/polyfills.js",
        "/home/davidfm/.meteor/packages/alanning_roles/3.4.0/web.browser/examples/flow-router-advanced/main/server/startup/fixtures.js",
        "/home/davidfm/.meteor/packages/alanning_roles/3.4.0/web.browser/examples/flow-router-advanced/main/server/startup/publish.js",
        "/home/davidfm/.meteor/packages/alanning_roles/3.4.0/web.browser/examples/flow-router-advanced/main/server/startup/validateNewUser.js",
        "/home/davidfm/.meteor/packages/alanning_roles/3.4.0/web.browser/examples/flow-router-advanced/manageUsers/client/manage-users.js",
        "/home/davidfm/.meteor/packages/alanning_roles/3.4.0/web.browser/examples/flow-router-advanced/manageUsers/client/manageController.js",
        "/home/davidfm/.meteor/packages/alanning_roles/3.4.0/web.browser/examples/flow-router-advanced/manageUsers/client/routing.js",
        "/home/davidfm/.meteor/packages/alanning_roles/3.4.0/web.browser/examples/flow-router-advanced/manageUsers/server/manageUsers.js",
        "/home/davidfm/.meteor/packages/alanning_roles/3.4.0/web.browser/examples/flow-router-advanced/secrets/model.js",
        "/home/davidfm/.meteor/packages/alanning_roles/3.4.0/web.browser/examples/flow-router-advanced/secrets/client/routing.js",
        "/home/davidfm/.meteor/packages/alanning_roles/3.4.0/web.browser/examples/flow-router-advanced/secrets/client/secrets.js",
        "/home/davidfm/.meteor/packages/alanning_roles/3.4.0/web.browser/examples/flow-router-advanced/secrets/client/secretsController.js",
        "/home/davidfm/.meteor/packages/alanning_roles/3.4.0/web.browser/examples/flow-router-advanced/secrets/server/fixtures.js",
        "/home/davidfm/.meteor/packages/alanning_roles/3.4.0/web.browser/examples/flow-router-advanced/secrets/server/secrets.js",
        "/home/davidfm/.meteor/packages/alanning_roles/3.4.0/web.browser/examples/flow-router/model.js",
        "/home/davidfm/.meteor/packages/alanning_roles/3.4.0/web.browser/examples/flow-router/client/client.js",
        "/home/davidfm/.meteor/packages/alanning_roles/3.4.0/web.browser/examples/flow-router/client/layouts.js",
        "/home/davidfm/.meteor/packages/alanning_roles/3.4.0/web.browser/examples/flow-router/client/manage-users.js",
        "/home/davidfm/.meteor/packages/alanning_roles/3.4.0/web.browser/examples/flow-router/client/routing.js",
        "/home/davidfm/.meteor/packages/alanning_roles/3.4.0/web.browser/examples/flow-router/client/secrets.js",
        "/home/davidfm/.meteor/packages/alanning_roles/3.4.0/web.browser/examples/flow-router/client/lib/globals.js",
        "/home/davidfm/.meteor/packages/alanning_roles/3.4.0/web.browser/examples/flow-router/server/server.js",
        "/home/davidfm/.meteor/packages/alanning_roles/3.4.0/web.browser/examples/iron-router/model.js",
        "/home/davidfm/.meteor/packages/alanning_roles/3.4.0/web.browser/examples/iron-router/client/client.js",
        "/home/davidfm/.meteor/packages/alanning_roles/3.4.0/web.browser/examples/iron-router/client/manage-users.js",
        "/home/davidfm/.meteor/packages/alanning_roles/3.4.0/web.browser/examples/iron-router/client/routing.js",
        "/home/davidfm/.meteor/packages/alanning_roles/3.4.0/web.browser/examples/iron-router/client/secrets.js",
        "/home/davidfm/.meteor/packages/alanning_roles/3.4.0/web.browser/examples/iron-router/client/lib/globals.js",
        "/home/davidfm/.meteor/packages/alanning_roles/3.4.0/web.browser/examples/iron-router/server/server.js",
        "/home/davidfm/.meteor/packages/alanning_roles/3.4.0/web.browser/roles/roles_server.js"
      ],
      "meteor/mrt:chosen-package": [
        "/home/davidfm/.meteor/packages/mrt_chosen-package/0.11.1/web.browser//packages/mrt:chosen-package.js"
      ],
      "meteor/lfergon:exportcsv": [
        "/home/davidfm/.meteor/packages/lfergon_exportcsv/0.0.8/web.browser//packages/lfergon_exportcsv.js"
      ],
      "meteor/dudeawesome:livestamp": [
        "/home/davidfm/.meteor/packages/dudeawesome_livestamp/1.0.0/web.browser/lib/livestamp/livestamp.min.js",
        "/home/davidfm/.meteor/packages/dudeawesome_livestamp/1.0.0/web.browser/export-livestamp.js",
        "/home/davidfm/.meteor/packages/dudeawesome_livestamp/1.0.0/web.browser/helpers.js"
      ],
      "meteor/ostrio:files": [
        "/home/davidfm/.meteor/packages/ostrio_files/2.3.2/web.browser/client.js",
        "/home/davidfm/.meteor/packages/ostrio_files/2.3.2/web.browser/core.js",
        "/home/davidfm/.meteor/packages/ostrio_files/2.3.2/web.browser/cursor.js",
        "/home/davidfm/.meteor/packages/ostrio_files/2.3.2/web.browser/lib.js",
        "/home/davidfm/.meteor/packages/ostrio_files/2.3.2/web.browser/server.js",
        "/home/davidfm/.meteor/packages/ostrio_files/2.3.2/web.browser/upload.js",
        "/home/davidfm/.meteor/packages/ostrio_files/2.3.2/web.browser/worker.js",
        "/home/davidfm/.meteor/packages/ostrio_files/2.3.2/web.browser/worker.min.js",
        "/home/davidfm/.meteor/packages/ostrio_files/2.3.2/web.browser/write-stream.js"
      ],
      "meteor/littledata:synced-cron": [
        "/home/davidfm/.meteor/packages/littledata_synced-cron/1.5.1/web.browser/synced-cron-server.js"
      ],
      "meteor/dayd:todos": [
        "/home/davidfm/.meteor/packages/dayd_todos/0.1.0/web.browser/client/lib/_helpers.js",
        "/home/davidfm/.meteor/packages/dayd_todos/0.1.0/web.browser/client/template/todos.js",
        "/home/davidfm/.meteor/packages/dayd_todos/0.1.0/web.browser/client/template/todo.js",
        "/home/davidfm/.meteor/packages/dayd_todos/0.1.0/web.browser/lib/collections.js",
        "/home/davidfm/.meteor/packages/dayd_todos/0.1.0/web.browser/lib/methods.js",
        "/home/davidfm/.meteor/packages/dayd_todos/0.1.0/web.browser/server/publish.js"
      ],
      "meteor/check": [
        "/home/davidfm/.meteor/packages/check/1.3.2/web.browser/match.js",
        "/home/davidfm/.meteor/packages/check/1.3.2/web.browser/isPlainObject.js"
      ],
      "meteor/mizzao:user-status": [
        "/home/davidfm/.meteor/packages/mizzao_user-status/1.0.1/web.browser/client/monitor.js",
        "/home/davidfm/.meteor/packages/mizzao_user-status/1.0.1/web.browser/demo/client/main.js",
        "/home/davidfm/.meteor/packages/mizzao_user-status/1.0.1/web.browser/demo/packages/meteor-user-status/package.js",
        "/home/davidfm/.meteor/packages/mizzao_user-status/1.0.1/web.browser/demo/packages/meteor-user-status/client/monitor.js",
        "/home/davidfm/.meteor/packages/mizzao_user-status/1.0.1/web.browser/demo/packages/meteor-user-status/server/status.js",
        "/home/davidfm/.meteor/packages/mizzao_user-status/1.0.1/web.browser/demo/server/main.js",
        "/home/davidfm/.meteor/packages/mizzao_user-status/1.0.1/web.browser/server/status.js"
      ],
      "meteor/reywood:publish-composite": [
        "/home/davidfm/.meteor/packages/reywood_publish-composite/1.7.3/web.browser/lib/publish_composite.js",
        "/home/davidfm/.meteor/packages/reywood_publish-composite/1.7.3/web.browser/lib/doc_ref_counter.js",
        "/home/davidfm/.meteor/packages/reywood_publish-composite/1.7.3/web.browser/lib/logging.js",
        "/home/davidfm/.meteor/packages/reywood_publish-composite/1.7.3/web.browser/lib/publication.js",
        "/home/davidfm/.meteor/packages/reywood_publish-composite/1.7.3/web.browser/lib/subscription.js",
        "/home/davidfm/.meteor/packages/reywood_publish-composite/1.7.3/web.browser/lib/published_document.js",
        "/home/davidfm/.meteor/packages/reywood_publish-composite/1.7.3/web.browser/lib/published_document_list.js"
      ],
      "meteor/remcoder:chronos": [
        "/home/davidfm/.meteor/packages/remcoder_chronos/0.5.0/web.browser/chronos.js"
      ],
      "meteor/aldeed:template-extension": [
        "/home/davidfm/.meteor/packages/aldeed_template-extension/4.1.0/web.browser/lib/hooks.js",
        "/home/davidfm/.meteor/packages/aldeed_template-extension/4.1.0/web.browser/lib/template-for-each.js",
        "/home/davidfm/.meteor/packages/aldeed_template-extension/4.1.0/web.browser/lib/template-hooks.js",
        "/home/davidfm/.meteor/packages/aldeed_template-extension/4.1.0/web.browser/lib/template-global-hooks.js",
        "/home/davidfm/.meteor/packages/aldeed_template-extension/4.1.0/web.browser/lib/template-for-each-instance.js",
        "/home/davidfm/.meteor/packages/aldeed_template-extension/4.1.0/web.browser/lib/template-inherits-events-from.js",
        "/home/davidfm/.meteor/packages/aldeed_template-extension/4.1.0/web.browser/lib/template-inherits-helpers-from.js",
        "/home/davidfm/.meteor/packages/aldeed_template-extension/4.1.0/web.browser/lib/template-inherits-hooks-from.js",
        "/home/davidfm/.meteor/packages/aldeed_template-extension/4.1.0/web.browser/lib/template-register-helpers.js",
        "/home/davidfm/.meteor/packages/aldeed_template-extension/4.1.0/web.browser/lib/template-replaces.js",
        "/home/davidfm/.meteor/packages/aldeed_template-extension/4.1.0/web.browser/lib/template-clear-event-maps.js",
        "/home/davidfm/.meteor/packages/aldeed_template-extension/4.1.0/web.browser/lib/template-copy-as.js",
        "/home/davidfm/.meteor/packages/aldeed_template-extension/4.1.0/web.browser/lib/template-instance-parent.js",
        "/home/davidfm/.meteor/packages/aldeed_template-extension/4.1.0/web.browser/lib/template-instance-get.js",
        "/home/davidfm/.meteor/packages/aldeed_template-extension/4.1.0/web.browser/lib/template-instance-set.js",
        "/home/davidfm/.meteor/packages/aldeed_template-extension/4.1.0/web.browser/lib/template-parent-data-function.js"
      ],
      "meteor/fetch": [
        "/home/davidfm/.meteor/packages/fetch/0.1.3/web.browser/modern.js",
        "/home/davidfm/.meteor/packages/fetch/0.1.3/web.browser/legacy.js",
        "/home/davidfm/.meteor/packages/fetch/0.1.3/web.browser/server.js"
      ]
    }
  },
  "typeAcquisition": {
    "include": [
      "meteor"
    ]
  },
  "exclude": [
    "node_modules",
    ".meteor"
  ]
}